{
  "project_info": {
    "project_number": "738124401110",
    "firebase_url": "https://lawyerschoice-9fcab.firebaseio.com",
    "project_id": "lawyerschoice-9fcab",
    "storage_bucket": "lawyerschoice-9fcab.appspot.com"
  },
  "client": [
    {
      "client_info": {
        "mobilesdk_app_id": "1:738124401110:android:4d50219a8bef2f26",
        "android_client_info": {
          "package_name": "com.example.lawyerschoice"
        }
      },
      "oauth_client": [
        {
          "client_id": "738124401110-koh2g8lo5nlqllan0soij43o9ou0l404.apps.googleusercontent.com",
          "client_type": 1,
          "android_info": {
            "package_name": "com.example.lawyerschoice",
            "certificate_hash": "6fd802355231dbc084ae49d0ce9d2ca54f7a154b"
          }
        },
        {
          "client_id": "738124401110-rf73b9akee7ojoe6rk68alhs23pefpla.apps.googleusercontent.com",
          "client_type": 3
        }
      ],
      "api_key": [
        {
          "current_key": "AIzaSyDTWCJQd6nzEmy7ZyZbev0BoxMUZbYkmNY"
        }
      ],
      "services": {
        "analytics_service": {
          "status": 1
        },
        "appinvite_service": {
          "status": 2,
          "other_platform_oauth_client": [
            {
              "client_id": "738124401110-rf73b9akee7ojoe6rk68alhs23pefpla.apps.googleusercontent.com",
              "client_type": 3
            }
          ]
        },
        "ads_service": {
          "status": 2
        }
      }
    },
    {
      "client_info": {
        "mobilesdk_app_id": "1:738124401110:android:75085a88fb07d8ba",
        "android_client_info": {
          "package_name": "com.safati.lawyerschoice"
        }
      },
      "oauth_client": [
        {
          "client_id": "738124401110-hnh2tgmljrudlr88prh19408vlelutvd.apps.googleusercontent.com",
          "client_type": 1,
          "android_info": {
            "package_name": "com.safati.lawyerschoice",
            "certificate_hash": "6fd802355231dbc084ae49d0ce9d2ca54f7a154b"
          }
        },
        {
          "client_id": "738124401110-rf73b9akee7ojoe6rk68alhs23pefpla.apps.googleusercontent.com",
          "client_type": 3
        }
      ],
      "api_key": [
        {
          "current_key": "AIzaSyDTWCJQd6nzEmy7ZyZbev0BoxMUZbYkmNY"
        }
      ],
      "services": {
        "analytics_service": {
          "status": 1
        },
        "appinvite_service": {
          "status": 2,
          "other_platform_oauth_client": [
            {
              "client_id": "738124401110-rf73b9akee7ojoe6rk68alhs23pefpla.apps.googleusercontent.com",
              "client_type": 3
            }
          ]
        },
        "ads_service": {
          "status": 2
        }
      }
    }
  ],
  "configuration_version": "1"
}